…
n_nulls <- function(x) sum(is.na(x))
Soybean %>%
  filter(Class %in% c('2-4-d-injury', 'cyst-namatode',  'diaporthe-pod-&-stem-blight', 'herbicide-injury', 'phytophthora-rot')) %>%
  group_by(Class) %>%
    select_if(negate(is.numeric)) %>%
    summarise_all(funs(n_nulls, n=n()))  %>%
    gather(key="key", value="value", -Class) %>%
    extract(key, c("variable", "metric"), "(.*)_(n$|n_nulls$)") %>%
    spread(metric, value) %>%
  mutate(prop_nulls = n_nulls/n) %>%
  select(Class, variable, prop_nulls) %>%
  spread(Class, prop_nulls)

## # A tibble: 35 x 5
##    variable `2-4-d-injury` `diaporthe-pod-… `herbicide-inju…
##    <chr>             <dbl>            <dbl>            <dbl>
##  1 area.dam         0.0625              0                  0
##  2 canker.…         1                   0                  1
##  3 crop.hi…         1                   0                  0
##  4 date             0.0625              0                  0
##  5 ext.dec…         1                   0                  1
##  6 fruit.p…         1                   0                  0
##  7 fruit.s…         1                   0                  1
##  8 fruitin…         1                   0                  1
##  9 germ             1                   0.4                1
## 10 hail             1                   1                  1
## # … with 25 more rows, and 1 more variable: `phytophthora-rot` <dbl>
…
